%YAML 1.1
%TAG !u! tag:unity3d.com,2011:
--- !u!114 &11400000
MonoBehaviour:
  m_ObjectHideFlags: 0
  m_CorrespondingSourceObject: {fileID: 0}
  m_PrefabInstance: {fileID: 0}
  m_PrefabAsset: {fileID: 0}
  m_GameObject: {fileID: 0}
  m_Enabled: 1
  m_EditorHideFlags: 0
  m_Script: {fileID: 11500000, guid: 0ff36627b98464c4f9b3b472c6ba0350, type: 3}
  m_Name: DpsSlash
  m_EditorClassIdentifier: 
  moveName: DpsSlash
  hasCastTime: 0
  castTime: 0
  castParticle: {fileID: 0}
  cooldown: 1
  category: 0
  rangeType: 0
  maxRange: 0
  damage: 17
  attackSpeed: 10
  isParabolic: 0
  projectile: {fileID: 0}
  attackPattern: {fileID: 0}
  healPotency: 0
  healParticle: {fileID: 0}
  BDValue: 0
  BDDuration: 0
  affectedStat: 0
  effectParticle: {fileID: 0}
  distance: 0
  movPower: 0
  direction: 0
  executorName: MeleeSlashSkill
