%YAML 1.1
%TAG !u! tag:unity3d.com,2011:
--- !u!114 &11400000
MonoBehaviour:
  m_ObjectHideFlags: 0
  m_CorrespondingSourceObject: {fileID: 0}
  m_PrefabInstance: {fileID: 0}
  m_PrefabAsset: {fileID: 0}
  m_GameObject: {fileID: 0}
  m_Enabled: 1
  m_EditorHideFlags: 0
  m_Script: {fileID: 11500000, guid: 0ff36627b98464c4f9b3b472c6ba0350, type: 3}
  m_Name: SingleHeal
  m_EditorClassIdentifier: 
  moveName: SingleHeal
  hasCastTime: 1
  castTime: 0.7
  castParticle: {fileID: 1503964030466599102, guid: 58d3e12e5cca9dc4495d2fff4c2cd259,
    type: 3}
  cooldown: 5
  category: 1
  rangeType: 1
  maxRange: 15
  damage: 50
  attackSpeed: 0
  isParabolic: 0
  projectile: {fileID: 0}
  attackPattern: {fileID: 0}
  healPotency: 50
  healParticle: {fileID: 1430134811626743148, guid: 3ca08a31b76b575408bf4d335e355ea6,
    type: 3}
  BDValue: 0
  BDDuration: 0
  affectedStat: 0
  effectParticle: {fileID: 0}
  distance: 0
  movPower: 0
  direction: 0
  executorName: SingleHealSkill
